{
    "method": "update_video",
    "params": {
        "video": {
            "id": "3658070241001",
            "videoFullLength": {
                "referenceId": "livestreamB_generic",
                "remoteUrl": "http://netshow-i.akamaihd.net/hls/live/204403/LiveB/master.m3u8",
                "videoDuration": -1,
                "size": 0,
                "videoCodec": "H264",
                "videoContainer": "M2TS",
                "controllerType": "AKAMAI_LIVE"
            }
        },
        "token": "<apikey>"
    }
}