
{
    "method": "create_video",
    "params": {
        "video": {
            "name": "9news.com.au 6pm Sydney livestream",
            "shortDescription": "Watch live, streaming video from 9news.com.au",
            "renditions": [
                {
                    "audioOnly": false,
                    "controllerType": "AKAMAI_LIVE",
                    "displayName": "ninemsn livestream - LO",
                    "encodingRate": 264000,
                    "frameHeight": 234,
                    "frameWidth": 416,
                    "referenceId": "LiveA_LO",
                    "remoteStreamName": "LiveC-LO@72251",
                    "remoteUrl": "rtmp://cp165922.live.edgefcs.net/live/",
                    "size": 0,
                    "uploadTimestampMillis": 1351572790680,
                    "videoCodec": "ON2",
                    "videoContainer": "FLV",
                    "videoDuration": -1
                },
                {
                    "audioOnly": false,
                    "controllerType": "AKAMAI_LIVE",
                    "displayName": "ninemsn livestream - SD",
                    "encodingRate": 664000,
                    "frameHeight": 234,
                    "frameWidth": 416,
                    "referenceId": "LiveA_SD",
                    "remoteStreamName": "LiveC-SD@72250",
                    "remoteUrl": "rtmp://cp165922.live.edgefcs.net/live/",
                    "size": -1,
                    "uploadTimestampMillis": 1351571944022,
                    "videoCodec": "ON2",
                    "videoContainer": "FLV",
                    "videoDuration": -1
                },
                {
                    "audioOnly": false,
                    "controllerType": "AKAMAI_LIVE",
                    "displayName": "ninemsn livestream - HI",
                    "encodingRate": 1328000,
                    "frameHeight": 360,
                    "frameWidth": 640,
                    "referenceId": "LiveA_HI",
                    "remoteStreamName": "LiveC-HI@72248",
                    "remoteUrl": "rtmp://cp165922.live.edgefcs.net/live/",
                    "size": -1,
                    "uploadTimestampMillis": 1351571944048,
                    "videoCodec": "ON2",
                    "videoContainer": "FLV",
                    "videoDuration": -1
                },
                {
                    "audioOnly": false,
                    "controllerType": "AKAMAI_LIVE",
                    "displayName": "ninemsn livestream - HD",
                    "encodingRate": 1992000,
                    "frameHeight": 360,
                    "frameWidth": 640,
                    "referenceId": "LiveA_HD",
                    "remoteStreamName": "LiveC-HD@72247",
                    "remoteUrl": "rtmp://cp165922.live.edgefcs.net/live/",
                    "size": -1,
                    "uploadTimestampMillis": 1351571944078,
                    "videoCodec": "ON2",
                    "videoContainer": "FLV",
                    "videoDuration": -1
                }
            ]
        },
    "token": "<apikey>"
    }
}