{
  "mappings": {
    "movie": {
      "properties": {
        "FLVFullLength": {
          "properties": {
            "audioOnly": {
              "type": "boolean"
            },
            "controllerType": {
              "type": "string"
            },
            "displayName": {
              "type": "string"
            },
            "encodingRate": {
              "type": "long"
            },
            "frameHeight": {
              "type": "long"
            },
            "frameWidth": {
              "type": "long"
            },
            "id": {
              "type": "long"
            },
            "referenceId": {
              "type": "string"
            },
            "remoteStreamName": {
              "type": "string"
            },
            "remoteUrl": {
              "type": "string"
            },
            "size": {
              "type": "long"
            },
            "uploadTimestampMillis": {
              "type": "long"
            },
            "url": {
              "type": "string"
            },
            "videoCodec": {
              "type": "string"
            },
            "videoContainer": {
              "type": "string"
            },
            "videoDuration": {
              "type": "long"
            }
          }
        },
        "FLVURL": {
          "type": "string"
        },
        "HLSURL": {
          "type": "string"
        },
        "IOSRenditions": {
          "properties": {
            "audioOnly": {
              "type": "boolean"
            },
            "controllerType": {
              "type": "string"
            },
            "displayName": {
              "type": "string"
            },
            "encodingRate": {
              "type": "long"
            },
            "frameHeight": {
              "type": "long"
            },
            "frameWidth": {
              "type": "long"
            },
            "id": {
              "type": "long"
            },
            "size": {
              "type": "long"
            },
            "uploadTimestampMillis": {
              "type": "long"
            },
            "url": {
              "type": "string"
            },
            "videoCodec": {
              "type": "string"
            },
            "videoContainer": {
              "type": "string"
            },
            "videoDuration": {
              "type": "long"
            }
          }
        },
        "accountId": {
          "type": "long"
        },
        "creationDate": {
          "type": "string"
        },
        "cuePoints": {
          "properties": {
            "forceStop": {
              "type": "boolean"
            },
            "id": {
              "type": "long"
            },
            "metadata": {
              "type": "string"
            },
            "name": {
              "type": "string"
            },
            "time": {
              "type": "double"
            },
            "type": {
              "type": "long"
            },
            "typeEnum": {
              "type": "string"
            },
            "videoId": {
              "type": "long"
            }
          }
        },
        "customFields": {
          "properties": {
            "classification": {
              "type": "string",
              "index": "not_analyzed"
            },
            "directingest": {
              "type": "string",
              "index": "not_analyzed"
            },
            "genre": {
              "type": "string",
              "index": "not_analyzed"
            },
            "newtofreewheel": {
              "type": "string",
              "index": "not_analyzed"
            },
            "segment": {
              "type": "string"
            },
            "series": {
              "type": "string",
              "index": "not_analyzed"
            },
            "source": {
              "type": "string",
              "index": "not_analyzed"
            },
            "supplier": {
              "type": "string",
              "index": "not_analyzed"
            },
            "topic": {
              "type": "string"
            },
            "tvnetwork": {
              "type": "string",
              "index": "not_analyzed"
            }
          }
        },
        "digitalMaster": {
          "properties": {
            "audioOnly": {
              "type": "boolean"
            },
            "controllerType": {
              "type": "string"
            },
            "displayName": {
              "type": "string"
            },
            "encodingRate": {
              "type": "long"
            },
            "frameHeight": {
              "type": "long"
            },
            "frameWidth": {
              "type": "long"
            },
            "id": {
              "type": "long"
            },
            "referenceId": {
              "type": "string"
            },
            "size": {
              "type": "long"
            },
            "uploadTimestampMillis": {
              "type": "long"
            },
            "videoCodec": {
              "type": "string"
            },
            "videoContainer": {
              "type": "string"
            },
            "videoDuration": {
              "type": "long"
            }
          }
        },
        "economics": {
          "type": "string"
        },
        "id": {
          "type": "long"
        },
        "itemState": {
          "type": "string"
        },
        "geoFiltered": {
          "type": "string"
        },
        "geoFilteredCountries": {
          "type": "string"
        },
        "geoFilterExclude": {
          "type": "string"
        },
        "lastModifiedDate": {
          "type": "string"
        },
        "length": {
          "type": "long"
        },
        "linkText": {
          "type": "string"
        },
        "linkURL": {
          "type": "string"
        },
        "longDescription": {
          "type": "string"
        },
        "name": {
          "type": "string"
        },
        "playsTotal": {
          "type": "long"
        },
        "playsTrailingWeek": {
          "type": "long"
        },
        "publishedDate": {
          "type": "string"
        },
        "startDate": {
          "type": "string"
        },
        "endDate": {
          "type": "string"
        },
        "referenceId": {
          "type": "string"
        },
        "renditions": {
          "properties": {
            "audioOnly": {
              "type": "boolean"
            },
            "controllerType": {
              "type": "string"
            },
            "displayName": {
              "type": "string"
            },
            "encodingRate": {
              "type": "long"
            },
            "frameHeight": {
              "type": "long"
            },
            "frameWidth": {
              "type": "long"
            },
            "id": {
              "type": "long"
            },
            "referenceId": {
              "type": "string"
            },
            "remoteStreamName": {
              "type": "string"
            },
            "remoteUrl": {
              "type": "string"
            },
            "size": {
              "type": "long"
            },
            "uploadTimestampMillis": {
              "type": "long"
            },
            "url": {
              "type": "string"
            },
            "videoCodec": {
              "type": "string"
            },
            "videoContainer": {
              "type": "string"
            },
            "videoDuration": {
              "type": "long"
            }
          }
        },
        "sharedByExternalAcct": {
          "type": "boolean"
        },
        "sharedToExternalAcct": {
          "type": "boolean"
        },
        "shortDescription": {
          "type": "string"
        },
        "tags": {
          "type": "string"
        },
        "thumbnail": {
          "properties": {
            "displayName": {
              "type": "string"
            },
            "id": {
              "type": "long"
            },
            "referenceId": {
              "type": "string"
            },
            "remoteUrl": {
              "type": "string"
            },
            "type": {
              "type": "string"
            }
          }
        },
        "thumbnailURL": {
          "type": "string"
        },
        "version": {
          "type": "long"
        },
        "videoFullLength": {
          "properties": {
            "audioOnly": {
              "type": "boolean"
            },
            "controllerType": {
              "type": "string"
            },
            "displayName": {
              "type": "string"
            },
            "encodingRate": {
              "type": "long"
            },
            "frameHeight": {
              "type": "long"
            },
            "frameWidth": {
              "type": "long"
            },
            "id": {
              "type": "long"
            },
            "referenceId": {
              "type": "string"
            },
            "remoteStreamName": {
              "type": "string"
            },
            "remoteUrl": {
              "type": "string"
            },
            "size": {
              "type": "long"
            },
            "uploadTimestampMillis": {
              "type": "long"
            },
            "url": {
              "type": "string"
            },
            "videoCodec": {
              "type": "string"
            },
            "videoContainer": {
              "type": "string"
            },
            "videoDuration": {
              "type": "long"
            }
          }
        },
        "videoStill": {
          "properties": {
            "displayName": {
              "type": "string"
            },
            "id": {
              "type": "long"
            },
            "referenceId": {
              "type": "string"
            },
            "remoteUrl": {
              "type": "string"
            },
            "type": {
              "type": "string"
            }
          }
        },
        "videoStillURL": {
          "type": "string"
        }
      }
    }
  }
}



